{
  "key": "Makolet",
  "children": [
    {
      "key": "אוכל",
      "children": [
        {
          "key": "חלב",
          "children": [
            {
              "key": "תנובה",
              "children": [
                {
                  "key": "1L",
                  "children": [
                    {
                      "key": "1%",
                      "value": 3,
                      "children": [
                        {
                          "key" : "חלב תנובה 1% 1L",
                          "value": 1
                        }
                      ]
                    },
                    {
                      "key": "3%",
                      "value": 2,
                      "children": [
                        {
                          "key" : "חלב תנובה 3% 1L",
                          "value": 1
                        }
                      ]
                    }
                  ]
                },
                {
                  "key": "2L",
                  "children": [
                    {
                      "key": "3%",
                      "value": 1,
                      "children": [
                        {
                          "key" : "חלב תנובה 3% 2L",
                          "value": 1
                        }
                      ]
                    }
                  ]
                }
              ]
            },
            {
              "key": "טרה",
              "children": [
                {
                  "key": "1L",
                  "children": [
                    {
                      "key": "1%",
                      "value": 3,
                      "children": [
                        {
                          "key" : "חלב טרה 1% 1L",
                          "value": 1
                        }
                      ]
                    },
                    {
                      "key": "3%",
                      "value": 2,
                      "children": [
                        {
                          "key" : "חלב טרה 3% 1L",
                          "value": 1
                        }
                      ]
                    }
                  ]
                },
                {
                  "key": "2L",
                  "children": [
                    {
                      "key": "3%",
                      "value": 1,
                      "children": [
                        {
                          "key" : "חלב טרה 3% 2L",
                          "value": 1
                        }
                      ]
                    }
                  ]
                }
              ]
            }
          ]
        },
        {
          "key": "לחם",
          "children": [
            {
              "key": "אנגל",
              "children": [
                {
                  "key": "לחם אחיד",
                  "value": 3
                },
                {
                  "key": "לחם פרוס",
                  "value": 3
                }
              ]
            },
            {
              "key": "ברמן",
              "children": [
                {
                  "key": "לחם אחיד",
                  "value": 3
                },
                {
                  "key": "לחם פרוס",
                  "value": 3
                }
              ]
            }
          ]
        },
        {
          "key": "ביצים",
          "children": [
            {
              "key": "XL 12",
              "value": 3
            },
            {
              "key": "L 12",
              "value": 3
            }
          ]
        }
      ],
      "value": 3
    },
    {
      "key": "טואלטיקה",
      "children": [
        {
          "key": "משחת שיניים",
          "children": [
            {
              "key": "colgate",
              "value": 10
            }
          ]
        },
        {
          "key": "אבקת כביסה",
          "children": [
            {
              "key": "persil",
              "value": 20
            }
          ]
        }
      ],
      "value": 3
    },
    {
      "key": "אחר",
      "children": [
        {
          "key": "סיגריות",
          "children": [
            {
              "key": "time",
              "value": 5
            }
          ]
        },
        {
          "key": "וודקה",
          "children": [
            {
              "key": "keglevich",
              "value": 3
            }
          ]
        }
      ],
      "value": 3
    }
  ]
}
